<svg width="152" height="150" viewBox="0 0 152 150" fill="none" xmlns="http://www.w3.org/2000/svg">
<circle cx="77" cy="75" r="75" fill="#EFF8FD"/>
<path d="M36.0312 89.0917V82.8151L36.255 81.9491L36.7018 81.2998L37.1479 80.4341L37.8182 79.5683L38.4881 78.919L39.3808 78.2696L40.2745 77.8369L41.391 77.4039L42.2841 77.1873L43.4011 76.9712H45.1875L46.3039 77.1873L47.1968 77.6205L48.3133 77.8369L49.2067 78.486L50.1002 79.1353L50.7699 79.7847L51.4399 80.6504L51.8866 81.5164L52.1098 82.3818L52.3333 83.0312V90.1738L52.1098 91.0395L51.6631 91.9055L51.2166 92.771L50.5467 93.6372L49.8767 94.2866L48.9835 94.7193L48.0903 95.3686L46.9739 95.5847L46.0801 96.0177H42.9541L42.0609 95.8016L40.9442 95.5847L40.0513 95.1518L39.1578 94.7193L38.2644 94.0697L37.5944 93.4203L36.9247 92.5549L36.478 91.6889L36.255 90.8234L36.0312 89.9575V89.0917Z" stroke="#60B8E9" stroke-width="4" stroke-miterlimit="10" stroke-linecap="round" stroke-linejoin="round"/>
<path d="M3.20703 97.5295V92.118L3.43026 91.2526L3.65321 90.3866L3.87672 89.5209L4.54668 88.6552L5.21665 88.0061L5.88633 87.3567L6.7798 86.7074L7.67327 86.2744L8.56619 85.8414L9.68261 85.6251L10.5761 85.4087H12.5854L13.7024 85.6251L14.5956 85.8414L15.712 86.2744L16.6058 86.7074L17.4984 87.3567L18.1684 88.2222L18.8386 88.8715L19.2848 89.7375L19.5086 90.6032L19.7315 91.4689V98.6115L19.5086 99.477L19.0618 100.343L18.6151 101.209L17.9451 101.858L17.2754 102.507L16.382 103.156L15.2655 103.59L14.3724 104.023L13.4792 104.239L12.3625 104.455H10.3526L9.45966 104.239L8.34296 104.023L7.44949 103.59L6.55657 102.94L5.6631 102.291L4.99342 101.641L4.32345 100.992L3.87672 100.127L3.65321 99.2606L3.43026 98.3949L3.20703 97.5295Z" stroke="#60B8E9" stroke-width="4" stroke-miterlimit="10" stroke-linecap="round" stroke-linejoin="round"/>
<path d="M34.5957 112.63V119.996" stroke="#60B8E9" stroke-width="4" stroke-miterlimit="10" stroke-linecap="round" stroke-linejoin="round"/>
<path d="M44.2634 127.914H16.4355V133.295" stroke="#60B8E9" stroke-width="4" stroke-miterlimit="10" stroke-linecap="round" stroke-linejoin="round"/>
<path d="M9.93359 118.397L19.4007 127.909" stroke="#60B8E9" stroke-width="4" stroke-miterlimit="10" stroke-linecap="round" stroke-linejoin="round"/>
<path d="M2 133.293V113.589C2 111.261 3.94871 109.374 6.35187 109.374H16.2847L26.863 120.001H38.2257V127.911" stroke="#60B8E9" stroke-width="4" stroke-miterlimit="10" stroke-linecap="round" stroke-linejoin="round"/>
<path d="M61.4882 120.042V106.839L61.2653 106.406L60.8183 105.757L60.595 105.324L59.9251 104.891L59.2551 104.458L58.5854 104.026L57.692 103.593L56.5753 103.159L55.6823 102.726L54.5659 102.51L53.2257 102.077L51.8861 101.861L50.7694 101.644L49.4294 101.428H48.0898L46.7501 101.212H41.6137L40.274 101.428H38.9341L37.5939 101.644L36.2545 101.861L35.1378 102.077L33.7979 102.51L32.6812 102.726L31.5648 103.159L30.6716 103.593L29.7784 104.026L28.8852 104.458L28.4387 104.891L27.7688 105.324L27.322 105.757L27.0985 106.406L26.8753 106.839L26.6523 107.272V120.042" stroke="#60B8E9" stroke-width="4" stroke-miterlimit="10" stroke-linecap="round" stroke-linejoin="round"/>
<path d="M84.9385 97.5295V91.2526L84.715 90.3866L84.2686 89.5209L83.8221 88.6552L83.1521 88.0061L82.4822 87.3567L81.5887 86.7074L80.6955 86.2744L79.5791 85.8414L78.6856 85.6251L77.5692 85.4087H75.5596L74.6661 85.6251L73.5497 85.8414L72.6562 86.2744L71.7633 86.7074L70.8698 87.3567L70.2002 88.2222L69.5302 88.8715L69.0835 89.7375L68.8602 90.6032L68.6367 91.4689V98.6115L68.8602 99.477L69.3067 100.343L69.7534 101.209L70.4234 101.858L71.0933 102.507L71.9865 103.156L72.8797 103.59L73.9962 104.023L74.8896 104.239L76.006 104.455H77.7927L78.9091 104.239L79.8023 104.023L80.919 103.59L81.8122 102.94L82.7054 102.291L83.3751 101.641L84.0451 100.992L84.4921 100.127L84.715 99.2606L84.9385 98.3949V97.5295Z" stroke="#60B8E9" stroke-width="4" stroke-miterlimit="10" stroke-linecap="round" stroke-linejoin="round"/>
<path d="M53.9297 112.63V119.996" stroke="#60B8E9" stroke-width="4" stroke-miterlimit="10" stroke-linecap="round" stroke-linejoin="round"/>
<path d="M44.2617 127.914H72.0887V133.295" stroke="#60B8E9" stroke-width="4" stroke-miterlimit="10" stroke-linecap="round" stroke-linejoin="round"/>
<path d="M78.5879 118.397L69.1211 127.909" stroke="#60B8E9" stroke-width="4" stroke-miterlimit="10" stroke-linecap="round" stroke-linejoin="round"/>
<path d="M86.5229 133.293V113.589C86.5229 111.261 84.5739 109.374 82.1702 109.374H72.2381L61.6595 120.001H50.2969V127.911" stroke="#60B8E9" stroke-width="4" stroke-miterlimit="10" stroke-linecap="round" stroke-linejoin="round"/>
<path d="M21.2944 70.2622H16.1582" stroke="#60B8E9" stroke-width="4" stroke-miterlimit="10" stroke-linecap="round" stroke-linejoin="round"/>
<path d="M11.918 66.1502V39.0952" stroke="#60B8E9" stroke-width="4" stroke-miterlimit="10" stroke-linecap="round" stroke-linejoin="round"/>
<path d="M12.0137 66.0386C12.0137 68.3664 13.9621 70.2543 16.3655 70.2543" stroke="#60B8E9" stroke-width="4" stroke-miterlimit="10" stroke-linecap="round" stroke-linejoin="round"/>
<path d="M16.1582 34.9839H71.0924" stroke="#60B8E9" stroke-width="4" stroke-miterlimit="10" stroke-linecap="round" stroke-linejoin="round"/>
<path d="M16.3655 34.8423C13.9621 34.8423 12.0137 36.7305 12.0137 39.0583" stroke="#60B8E9" stroke-width="4" stroke-miterlimit="10" stroke-linecap="round" stroke-linejoin="round"/>
<path d="M75.5625 39.0952V66.1502" stroke="#60B8E9" stroke-width="4" stroke-miterlimit="10" stroke-linecap="round" stroke-linejoin="round"/>
<path d="M75.639 39.0583C75.639 36.7302 73.69 34.8423 71.2871 34.8423" stroke="#60B8E9" stroke-width="4" stroke-miterlimit="10" stroke-linecap="round" stroke-linejoin="round"/>
<path d="M71.0944 70.2622H34.248" stroke="#60B8E9" stroke-width="4" stroke-miterlimit="10" stroke-linecap="round" stroke-linejoin="round"/>
<path d="M71.2871 70.2543C73.6903 70.2543 75.639 68.3661 75.639 66.0386" stroke="#60B8E9" stroke-width="4" stroke-miterlimit="10" stroke-linecap="round" stroke-linejoin="round"/>
<path d="M21.3086 70.2573V81.6806L34.3008 70.2573" stroke="#60B8E9" stroke-width="4" stroke-miterlimit="10" stroke-linecap="round" stroke-linejoin="round"/>
<path d="M28.207 52.6206H59.1855" stroke="#60B8E9" stroke-width="4" stroke-miterlimit="10" stroke-linecap="round" stroke-linejoin="round"/>
<path d="M28.207 45.7993H59.1855" stroke="#60B8E9" stroke-width="4" stroke-miterlimit="10" stroke-linecap="round" stroke-linejoin="round"/>
<path d="M28.207 59.4395H43.6961" stroke="#60B8E9" stroke-width="4" stroke-miterlimit="10" stroke-linecap="round" stroke-linejoin="round"/>
</svg>
